{
    "authors": [
        "David Laurie"
    ],
    "configurations": [
        {
            "dependencies": {
                "derelict-gl3": ">=2.0.0-beta <2.1.0-0",
                "derelict-sdl2": ">=3.0.0-beta <3.1.0-0"
            },
            "dflags": [
                "-J=source"
            ],
            "name": "full",
            "targetName": "space-game",
            "targetType": "executable"
        }
    ],
    "copyright": "Copyright © 2020 David Laurie",
    "dependencies": {
        "entitysysd": "~>2.6.2"
    },
    "description": "A space game",
    "license": "GPL-3.0",
    "name": "space-game"
}